1,0.002866029739379883,0.0,0.002866029739379883,0.002866029739379883,0.00344800949097
2,6.29425048828125e-05,0.0,6.29425048828125e-05,6.29425048828125e-05,0.00062894821167
4,5.14984130859375e-05,7.48649524121646e-06,4.100799560546875e-05,5.14984130859375e-05,0.00140500068665
8,4.750490188598633e-05,4.750082586025424e-06,4.100799560546875e-05,4.696846008300781e-05,0.0022120475769
16,4.3019652366638184e-05,1.1772473765755547e-05,5.1975250244140625e-05,4.303455352783203e-05,0.0038321018219
32,5.054473876953125e-05,5.1284004011194946e-05,3.695487976074219e-05,4.0411949157714844e-05,0.00727796554565
64,4.9591064453125e-05,3.259504945982519e-05,3.790855407714844e-05,4.208087921142578e-05,0.0140252113342
256,5.682092159986496e-05,5.290960257149946e-05,4.291534423828125e-05,4.696846008300781e-05,0.0775139331818
512,3.5993754863739014e-05,3.0970348265233116e-05,3.0994415283203125e-05,3.1948089599609375e-05,0.0955448150635
1024,3.739981912076473e-05,3.643028004031756e-05,3.0994415283203125e-05,3.1948089599609375e-05,0.212382793427
2048,3.887456841766834e-05,9.870549990540659e-05,3.0994415283203125e-05,3.0994415283203125e-05,0.400974988937
4096,4.044058732688427e-05,0.00010960559377722825,2.5987625122070312e-05,3.0994415283203125e-05,0.852644920349
8192,3.7857971619814634e-05,0.00010738847295019414,3.0994415283203125e-05,3.0040740966796875e-05,2.00437903404
16384,0.004622851760359481,0.5866203406170444,3.0994415283203125e-05,3.0994415283203125e-05,79.8347978592
32678,0.0030801822129570655,0.5491923350125448,3.0994415283203125e-05,3.0994415283203125e-05,110.268983841
65536,4.8844482080312446e-05,0.0002416327960163817,2.5987625122070312e-05,3.695487976074219e-05,101.068294048
131072,4.405752224556636e-05,0.00022943508312959278,2.6941299438476562e-05,3.1948089599609375e-05,125.707319021
262144,4.9519689127919264e-05,0.00027587534583778015,4.100799560546875e-05,4.00543212890625e-05,97.9474840164
524288,4.399175213620765e-05,0.00018179114101511917,3.0040740966796875e-05,3.409385681152344e-05,271.432798862
1048567,5.0664606652585705e-05,0.0002911517571808277,3.0994415283203125e-05,4.1961669921875e-05,564.780832052
