1,0.003117084503173828,0.0,0.003117084503173828,0.003117084503173828,0.00355815887451
2,8.094310760498047e-05,3.3020973205566406e-05,4.792213439941406e-05,8.094310760498047e-05,0.00084114074707
4,5.745887756347656e-05,8.044639977838034e-06,4.887580871582031e-05,5.602836608886719e-05,0.00122714042664
8,5.328655242919922e-05,6.1920017782309305e-06,4.601478576660156e-05,5.257129669189453e-05,0.00274300575256
16,5.0380825996398926e-05,1.997595559670245e-05,4.601478576660156e-05,4.601478576660156e-05,0.00379705429077
32,5.0127506256103516e-05,3.30243621044298e-05,4.100799560546875e-05,4.2438507080078125e-05,0.007080078125
64,4.1425228118896484e-05,1.3420048976044529e-05,3.1948089599609375e-05,3.814697265625e-05,0.0142841339111
256,5.624257028102875e-05,4.5048922187591115e-05,4.601478576660156e-05,4.696846008300781e-05,0.0794770717621
512,4.355842247605324e-05,7.422759002590166e-05,3.0040740966796875e-05,3.409385681152344e-05,0.103641033173
1024,3.696326166391373e-05,3.52482430372827e-05,3.0994415283203125e-05,3.2067298889160156e-05,0.198096990585
2048,4.006235394626856e-05,0.00010301588238882782,3.0994415283203125e-05,3.2901763916015625e-05,0.435709953308
4096,4.788499791175127e-05,0.00013149681250904186,3.0040740966796875e-05,3.695487976074219e-05,1.07045388222
8192,4.4342741603031754e-05,0.00013294301090812795,3.0994415283203125e-05,3.314018249511719e-05,2.48557710648
16384,0.005076600384199992,0.64357658188515,3.600120544433594e-05,3.504753112792969e-05,88.8468780518
32678,0.0025647263302491646,0.4557444469688685,3.0994415283203125e-05,3.2901763916015625e-05,93.783424139
65536,0.0013417674854281358,0.3323771166558061,3.0994415283203125e-05,3.218650817871094e-05,109.655689001
131072,4.6690343879163265e-05,0.0003349254218028934,3.0040740966796875e-05,3.600120544433594e-05,141.962820053
262144,4.945614364260109e-05,0.0002207291958799329,3.0994415283203125e-05,4.1961669921875e-05,106.933837891
524288,4.781729376190924e-05,0.00019942353786997168,3.0994415283203125e-05,4.100799560546875e-05,300.80727911
1048567,4.75128039279962e-05,0.00021043433791798392,3.0994415283203125e-05,3.981590270996094e-05,515.51020503
